Advanced visualization with ggplot2
…
ℹ Use `spec()` to retrieve the full column specification for this data.
ℹ Specify the column types or set `show_col_types = FALSE` to quiet this message.

Visualization

first_days <- weather %>% 
  filter(Day == 1, Month !=1)

weather %>% 
  mutate(Month = month.abb[as.numeric(Month)])

# A tibble: 365 × 19
   Month   Day   Low  High NormalLow NormalHigh RecordLow LowYr RecordHigh
   <chr> <dbl> <dbl> <dbl>     <dbl>      <dbl>     <dbl> <dbl>      <dbl>
 1 Jan       1    47    52        44         56        31  1965         68
 2 Jan       2    48    51        44         56        29  1960         69
 3 Jan       3    45    53        44         56        31  1950         69
 4 Jan       4    39    53        44         56        29  1949         62
 5 Jan       5    38    55        44         56        26  1949         65
 6 Jan       6    37    52        44         56        29  1950         66
 7 Jan       7    39    47        44         56        31  1973         65
 8 Jan       8    43    49        44         56        30  1955         70
 9 Jan       9    39    48        44         56        33  1957         71
10 Jan      10    36    49        44         56        29  1949         68
# ℹ 355 more rows
# ℹ 10 more variables: HiYear <dbl>, Precip <dbl>, RecordPrecip <dbl>,
#   PrecipYr <dbl>, date <date>, dateInYear <dbl>, Record <lgl>,
#   RecordText <chr>, RecordP <lgl>, CulmPrec <dbl>
…
